[
  {
    "name": "Abnehmbarer Baumwollbezug (schadstoffgeprüft) HN",
    "id": 4438
  },
  {
    "name": "90 - 100 cm HN",
    "id": 4439
  },
  {
    "name": "Maße 40x60x5 cm, 250g, Perkal-Inlett HN",
    "id": 4440
  },
  {
    "name": "Füllung 100% Kapok HN",
    "id": 4441
  },
  {
    "name": "155x220cm, 750g (Sommer), Perkal-Inlett HN",
    "id": 4442
  },
  {
    "name": "Bettdecke 100x135cm, Flachkissen 40x60cm HN",
    "id": 4443
  },
  {
    "name": "155x220cm, 1650g (Ganzjahr), Perkal-Inlett HN",
    "id": 4444
  },
  {
    "name": "Bettdecke 135x200cm, Kopfkissen 40x80cm HN",
    "id": 4445
  },
  {
    "name": "100x135 / 40x60 cm HN",
    "id": 4446
  },
  {
    "name": "230 x 105 cm HN",
    "id": 4447
  },
  {
    "name": "natur;ca. 75x75 cm HN",
    "id": 4448
  },
  {
    "name": "Maße 73 x 33 cm HN",
    "id": 4449
  },
  {
    "name": "Maße 34x40x3 cm, 50g, Perkal-Inlett HN",
    "id": 4450
  },
  {
    "name": "Maßße 40x60x5 cm, 250g, Perkal-Inlett HN",
    "id": 4451
  },
  {
    "name": "Höhe ca. 30 cm, Gewicht ca. 7-10 kg HN",
    "id": 4452
  },
  {
    "name": "Maße 70 x 140 cm, 650 g HN",
    "id": 4453
  },
  {
    "name": "1190 g HN",
    "id": 4454
  },
  {
    "name": "650 g HN",
    "id": 4455
  },
  {
    "name": "55 x 88 cm HN",
    "id": 4456
  },
  {
    "name": "75x100 cm HN",
    "id": 4457
  },
  {
    "name": "Gewicht 2,5 kg HN",
    "id": 4458
  },
  {
    "name": "Gewicht 0,9 kg HN",
    "id": 4459
  },
  {
    "name": "Gewicht: ca. 0,8 kg HN",
    "id": 4460
  },
  {
    "name": "90x190-100x200 cm HN",
    "id": 4461
  },
  {
    "name": "Maße 35 x 40 cm HN",
    "id": 4462
  },
  {
    "name": "Maße 40 x 60 cm HN",
    "id": 4463
  },
  {
    "name": "natur;80x80 cm HN",
    "id": 4464
  },
  {
    "name": "100x135cm, 450g (Sommer), Perkal-Inlett HN",
    "id": 4465
  },
  {
    "name": "100x135cm, 890g (Duo-Ganzjahr), Perkal-Inlett HN",
    "id": 4466
  },
  {
    "name": "135x200cm, 1300g (Ganzjahr), Perkal-Inlett HN",
    "id": 4467
  },
  {
    "name": "35x40cm, 150g, Perkal-Inlett HN",
    "id": 4468
  },
  {
    "name": "40x60cm, 300g, Perkal-Inlett HN",
    "id": 4469
  },
  {
    "name": "40x80cm, 700g, Perkal-Inlett HN",
    "id": 4470
  },
  {
    "name": "80x80cm, 1200g, Perkal-Inlett HN",
    "id": 4471
  },
  {
    "name": "100x135cm, 590g (Duo-Ganzjahr), Perkal-Inlett HN",
    "id": 4472
  },
  {
    "name": "5 Stück HN",
    "id": 4473
  },
  {
    "name": "135x200cm, 890g (Sommer), Perkal-Inlett HN",
    "id": 4474
  },
  {
    "name": "135x200cm, 1780g (Duo-Ganzj.), Perkal-Inlett HN",
    "id": 4475
  },
  {
    "name": "135x200cm, 590g (Sommer), Perkal-Inlett HN",
    "id": 4476
  },
  {
    "name": "135x200cm, 1190g (Duo-Ganzj.), Perkal-Inlett HN",
    "id": 4477
  },
  {
    "name": "135x200cm, 1780g (Duo-Winter), Perkal-Inlett HN",
    "id": 4478
  },
  {
    "name": "135x200cm, 1190g (Duo-Ganzj.), Perkal-Inlet HN",
    "id": 4479
  },
  {
    "name": "Höhe 118 cm, Tiefe 65 cm HN",
    "id": 4480
  },
  {
    "name": "Baumwollbezug, fest HN",
    "id": 4481
  },
  {
    "name": "Baumwollbezug, abnehmbar HN",
    "id": 4482
  },
  {
    "name": "Maße 80 x 90 cm HN",
    "id": 4483
  },
  {
    "name": "80 x 95 cm HN",
    "id": 4484
  },
  {
    "name": "70 - 80 cm HN",
    "id": 4485
  },
  {
    "name": "80 - 90 cm HN",
    "id": 4486
  },
  {
    "name": "100 - 110 cm HN",
    "id": 4487
  },
  {
    "name": "110 - 120 cm HN",
    "id": 4488
  },
  {
    "name": "Fester Baumwollbezug, schadstoffgeprüft HN",
    "id": 4489
  },
  {
    "name": "Abnehmbarer Baumwollbezug, schadstoffgeprüft HN",
    "id": 4490
  },
  {
    "name": "Abnehmbarer Baumwollbezug (kbA) HN",
    "id": 4491
  },
  {
    "name": "Baumwollbezug (kbA), abnehmbar HN",
    "id": 4492
  },
  {
    "name": "Dicke ca. 10 cm HN",
    "id": 4493
  },
  {
    "name": "75x100, ca. 400g HN",
    "id": 4494
  },
  {
    "name": "100x150, ca. 800g HN",
    "id": 4495
  },
  {
    "name": "Maße 75 x 100 cm HN",
    "id": 4496
  },
  {
    "name": "Natürliches Lammfellshampoo (200 ml) HN",
    "id": 4497
  },
  {
    "name": "Wollshampoo von Hans Natur exklusiv (200 ml) HN",
    "id": 4498
  },
  {
    "name": "Gewicht: ca. 1,5 kg HN",
    "id": 4499
  },
  {
    "name": "Maße 80 x 100 cm HN",
    "id": 4500
  },
  {
    "name": "70x140 cm HN",
    "id": 4501
  },
  {
    "name": "Baumwollbezug abnehmbar HN",
    "id": 4502
  },
  {
    "name": "Bio-Baumwollbezug (kbA) abnehmbar HN",
    "id": 4503
  },
  {
    "name": "100x135cm, 600g (Ganzjahr), Perkal-Inlett HN",
    "id": 4504
  },
  {
    "name": "60x120 cm HN",
    "id": 4505
  },
  {
    "name": "60x120cm HN",
    "id": 4506
  },
  {
    "name": "90 x 250 cm HN",
    "id": 4507
  },
  {
    "name": "60x120 bis 70x140 HN",
    "id": 4508
  },
  {
    "name": "70x140cm HN",
    "id": 4509
  },
  {
    "name": "ca.17 cm HN",
    "id": 4510
  },
  {
    "name": "Gewicht 4 kg HN",
    "id": 4511
  },
  {
    "name": "Gewicht 1,5 kg HN",
    "id": 4512
  },
  {
    "name": "200 ml HN",
    "id": 4513
  },
  {
    "name": "Massivholz bio geölt, Höhe ca. 155 cm HN",
    "id": 4514
  },
  {
    "name": "Gr.0 (ca. 57- 60 cm) HN",
    "id": 4515
  },
  {
    "name": "Gr.1 (ca. 75-80 cm) HN",
    "id": 4516
  },
  {
    "name": "Gr.2 (ca. 95-100 cm) HN",
    "id": 4517
  },
  {
    "name": "ca. 35 cm HN",
    "id": 4518
  },
  {
    "name": "200 cm HN",
    "id": 4519
  },
  {
    "name": "Baumwolle (kbT) HN",
    "id": 4520
  },
  {
    "name": "80 x 42 x 4 cm HN",
    "id": 4521
  },
  {
    "name": "Maße 40 x 80 cm HN",
    "id": 4522
  },
  {
    "name": "135x200cm, 2000g (Winter), Perkal-Inlett HN",
    "id": 4523
  },
  {
    "name": "Gr.1 (70cm) HN",
    "id": 4524
  },
  {
    "name": "Gr.2 (90cm) HN",
    "id": 4525
  },
  {
    "name": "Gr.3 (110cm) HN",
    "id": 4526
  },
  {
    "name": "Durchmesser: 28 cm, Höhe: 25,5 cm HN",
    "id": 4527
  },
  {
    "name": "natur, 40x70cm HN",
    "id": 4528
  },
  {
    "name": "100x135, 590g (Duo-Ganzjahr), Perkal-Inlett HN",
    "id": 4529
  },
  {
    "name": "Maße 40x60x5 cm, 200g, Perkal-Inlett HN",
    "id": 4530
  },
  {
    "name": "Natur;40x50cm HN",
    "id": 4531
  },
  {
    "name": "Natur;50x70cm HN",
    "id": 4532
  },
  {
    "name": "Natur;60x120cm HN",
    "id": 4533
  },
  {
    "name": "Natur;70x140cm HN",
    "id": 4534
  },
  {
    "name": "Natur;90x200cm HN",
    "id": 4535
  },
  {
    "name": "80 x 40 cm HN",
    "id": 4536
  },
  {
    "name": "90 x 40 x 4 cm HN",
    "id": 4537
  },
  {
    "name": "80x80cm, 290g (Ganzjahr), Perkal-Inlett HN",
    "id": 4538
  },
  {
    "name": "100x135cm, 190g (Sommer), Perkal-Inlett HN",
    "id": 4539
  },
  {
    "name": "100x135cm, 580g (Ganzjahr), Perkal-Inlett HN",
    "id": 4540
  },
  {
    "name": "Maße 40x60x3 cm, 120g, Perkal-Inlett HN",
    "id": 4541
  },
  {
    "name": "Gr. 2 (90x190x18-100x200x18 cm) HN",
    "id": 4542
  },
  {
    "name": "Gr.3 (140x200x18-160x200x18 cm) HN",
    "id": 4543
  },
  {
    "name": "Gr.2 (90x190x18-100x200x18 cm) HN",
    "id": 4544
  },
  {
    "name": "135x200cm, 400g (Sommer), Perkal-Inlett HN",
    "id": 4545
  },
  {
    "name": "135x200cm, 1200g (Ganzjahr), Perkal-Inlett HN",
    "id": 4546
  },
  {
    "name": "155x220cm, 510g (Sommer), Perkal-Inlett HN",
    "id": 4547
  },
  {
    "name": "155x220cm, 1520g (Ganzjahr), Perkal-Inlett HN",
    "id": 4548
  },
  {
    "name": "40x80cm HN",
    "id": 4549
  },
  {
    "name": "20 handgefertigte Kugeln, rosa-lila HN",
    "id": 4550
  },
  {
    "name": "20 handgefertigte Kugeln, bunt HN",
    "id": 4551
  },
  {
    "name": "24x148 cm HN",
    "id": 4552
  },
  {
    "name": "Maße 40 x 15 cm HN",
    "id": 4553
  },
  {
    "name": "Maße 40 x 60 x 10 cm HN",
    "id": 4554
  },
  {
    "name": "Set 155x220 / 80x80 cm HN",
    "id": 4555
  },
  {
    "name": "Set 135x200 / 40x80 cm HN",
    "id": 4556
  },
  {
    "name": "Set 135x200 / 80x80 cm HN",
    "id": 4557
  },
  {
    "name": "Set 155x220 / 40x80 cm HN",
    "id": 4558
  },
  {
    "name": "Gr.4 (130cm) HN",
    "id": 4559
  },
  {
    "name": "Kugel;Höhe ca. 22,5 cm,  Ø 20 cm HN",
    "id": 4560
  },
  {
    "name": "135x200cm, 700g (Sommer), Perkal-Inlett HN",
    "id": 4561
  },
  {
    "name": "155x220cm, 850g (Sommer), Perkal-Inlett HN",
    "id": 4562
  },
  {
    "name": "135x200cm, 1400g (Winter), Perkal-Inlett HN",
    "id": 4563
  },
  {
    "name": "155x220cm, 1700g (Winter), Perkal-Inlett HN",
    "id": 4564
  },
  {
    "name": "Maße 40x60x2 cm, 90g, Perkal-Inlett HN",
    "id": 4565
  },
  {
    "name": "80x80cm, 200g (Ganzjahr), Perkal-Inlett HN",
    "id": 4566
  },
  {
    "name": "100x135cm, 150g (Ganzjahr), Perkal-Inlett HN",
    "id": 4567
  },
  {
    "name": "80x80cm, 900g HN",
    "id": 4568
  },
  {
    "name": "40x80cm, 630g HN",
    "id": 4569
  },
  {
    "name": "135x200cm, 480g (Ganzjahr), Perkal-Inlett HN",
    "id": 4570
  },
  {
    "name": "155x220cm, 620g (Ganzjahr), Perkal-Inlett HN",
    "id": 4571
  },
  {
    "name": "135x200cm, 720g (Winter), Perkal-Inlett HN",
    "id": 4572
  },
  {
    "name": "155x220cm, 910g (Winter), Perkal-Inlett HN",
    "id": 4573
  },
  {
    "name": "135 x 200 cm, 1000 g (Sommer), Perkal-Inlett HN",
    "id": 4574
  },
  {
    "name": "155 x 220 cm, 1130 g (Sommer), Perkal-Inlett HN",
    "id": 4575
  },
  {
    "name": "80x80cm, 750g HN",
    "id": 4576
  },
  {
    "name": "40x80cm, 530g HN",
    "id": 4577
  },
  {
    "name": "135x200cm, 910g (Winter), Perkal-Inlett HN",
    "id": 4578
  },
  {
    "name": "100x135cm, 270g (Ganzjahr), Perkal-Inlett HN",
    "id": 4579
  },
  {
    "name": "100x135cm, 540g (Duo-Winter), Perkal-Inlett HN",
    "id": 4580
  },
  {
    "name": "80x80cm, 130g (Ganzjahr), Perkal-Inlett HN",
    "id": 4581
  },
  {
    "name": "80x80cm, 260g (Duo-Winter), Perkal-Inlett HN",
    "id": 4582
  },
  {
    "name": "135x200cm, 540g (Ganzjahr), Perkal-Inlett HN",
    "id": 4583
  },
  {
    "name": "135x200cm, 1080g (Duo-Winter), Perkal-Inlett HN",
    "id": 4584
  },
  {
    "name": "Maße 35x40x1 cm, 30g, Perkal-Inlett HN",
    "id": 4585
  },
  {
    "name": "Maße 40x60x1cm, 50g, Perkal-Inlett HN",
    "id": 4586
  },
  {
    "name": "Lyocellbezug abnehmbar HN",
    "id": 4587
  },
  {
    "name": "Lyocell-Bezug, versteppt, abnehmbar HN",
    "id": 4588
  },
  {
    "name": "ca. 25 cm HN",
    "id": 4589
  },
  {
    "name": "Maße 19 x 16 x 16 cm HN",
    "id": 4590
  },
  {
    "name": "155x220cm, 685g (Ganzjahr), Perkal-Inlett HN",
    "id": 4591
  },
  {
    "name": "155x220cm, 1370g (Duo-Winter), Perkal-Inlett HN",
    "id": 4592
  },
  {
    "name": ";60x120 cm HN",
    "id": 4593
  },
  {
    "name": ";70x140 cm HN",
    "id": 4594
  },
  {
    "name": "Maße 81 x 43 x 4 cm HN",
    "id": 4595
  },
  {
    "name": "90 x 200 cm HN",
    "id": 4596
  },
  {
    "name": "140 x 200 cm HN",
    "id": 4597
  },
  {
    "name": "100 x 200 cm HN",
    "id": 4598
  },
  {
    "name": "Füllung Bio-Baumwolle (kbA) HN",
    "id": 4599
  },
  {
    "name": "Füllung Schurwollkügelchen (kbT) HN",
    "id": 4600
  },
  {
    "name": "Liegefläche 70 x 140 cm HN",
    "id": 4601
  },
  {
    "name": "Gr.50/56 HN",
    "id": 4602
  },
  {
    "name": "Gr.62/68 HN",
    "id": 4603
  },
  {
    "name": "Nackenkissen 21x18cm HN",
    "id": 4604
  },
  {
    "name": "80x80cm, 240g (Ganzjahr), Perkal-Inlett HN",
    "id": 4605
  },
  {
    "name": "100x135cm, 500g (Ganzjahr), Perkal-Inlett HN",
    "id": 4606
  },
  {
    "name": "135x200cm, 1000g (Ganzjahr), Perkal-Inlett HN",
    "id": 4607
  },
  {
    "name": "155x220cm, 1270g (Ganzjahr), Perkal-Inlett HN",
    "id": 4608
  },
  {
    "name": "Maße 65 x 34 x 9 cm HN",
    "id": 4609
  },
  {
    "name": "Maße 59 x 38 x 10 cm HN",
    "id": 4610
  },
  {
    "name": "650 g;80 x 80 cm  90%Daune-10%Federn HN",
    "id": 4611
  },
  {
    "name": "80 x 80 cm HN",
    "id": 4612
  },
  {
    "name": "40 x 80 cm HN",
    "id": 4613
  },
  {
    "name": "80x80 cm, 450 g HN",
    "id": 4614
  },
  {
    "name": "72er Schachtel HN",
    "id": 4615
  },
  {
    "name": "10er Schachtel HN",
    "id": 4616
  },
  {
    "name": "60 x 90 mm HN",
    "id": 4617
  },
  {
    "name": "60 x 120 mm HN",
    "id": 4618
  },
  {
    "name": "200ml HN",
    "id": 4619
  },
  {
    "name": "500g HN",
    "id": 4620
  },
  {
    "name": "800g HN",
    "id": 4621
  },
  {
    "name": "1000g HN",
    "id": 4622
  },
  {
    "name": "30ml HN",
    "id": 4623
  },
  {
    "name": "100ml HN",
    "id": 4624
  },
  {
    "name": "80x80cm, 130g (Ganzjahr), Biber-Inlett HN",
    "id": 4625
  },
  {
    "name": "100x135cm, 270g (Ganzjahr), Biber-Inlett HN",
    "id": 4626
  },
  {
    "name": "135x200cm, 540g (Ganzjahr), Biber-Inlett HN",
    "id": 4627
  },
  {
    "name": "Maße 90 x 85 cm HN",
    "id": 4628
  },
  {
    "name": "Maße 40x60x1 cm, 50g, Biber-Inlett HN",
    "id": 4629
  },
  {
    "name": "20 handgefertigte Kugeln, lemongreen HN",
    "id": 4630
  },
  {
    "name": "20 handgefertigte Kugeln, türkis HN",
    "id": 4631
  },
  {
    "name": "20 handgefertigte Kugeln, marshmallow HN",
    "id": 4632
  },
  {
    "name": "89 x 50 x 4 cm HN",
    "id": 4633
  },
  {
    "name": "115 x 300 cm HN",
    "id": 4634
  },
  {
    "name": "Breite 155 cm HN",
    "id": 4635
  },
  {
    "name": "Bettbezug 100 x 135 cm, Kissen 40 x 60 cm HN",
    "id": 4636
  },
  {
    "name": "Bettbezug 135 x 200 cm, Kissen 40 x 80 cm HN",
    "id": 4637
  },
  {
    "name": "25 x 144 cm HN",
    "id": 4638
  },
  {
    "name": "25 x 165 cm HN",
    "id": 4639
  },
  {
    "name": "25 x 240 cm HN",
    "id": 4640
  },
  {
    "name": "Gr. 80 x 42 x 4 cm HN",
    "id": 4641
  },
  {
    "name": "Gr. 90 x 40 x 4 cm HN",
    "id": 4642
  },
  {
    "name": "Gr. 90 x 54 x 4 cm HN",
    "id": 4643
  },
  {
    "name": "100x135cm, 750 g (Duo-Winter), Perkal-Inlet HN",
    "id": 4644
  },
  {
    "name": "135x200cm, 1500 g (Duo-Winter), Perkal-Inlett HN",
    "id": 4645
  },
  {
    "name": "155x220cm, 1900 g (Duo-Winter), Perkal-Inlett HN",
    "id": 4646
  },
  {
    "name": "40x60cm, 350g HN",
    "id": 4647
  },
  {
    "name": "40x80cm, 450g HN",
    "id": 4648
  },
  {
    "name": "40-50 cm x 70-80 cm HN",
    "id": 4649
  },
  {
    "name": "40-55 cm x 80-90 cm HN",
    "id": 4650
  },
  {
    "name": "60-70 cm x 120-140 cm HN",
    "id": 4651
  },
  {
    "name": "60x120 cm / 70x140 cm HN",
    "id": 4652
  },
  {
    "name": "90-100 cm x 200-220 cm HN",
    "id": 4653
  },
  {
    "name": "90x200 cm / 100x220 cm HN",
    "id": 4654
  },
  {
    "name": "160 x 15 cm, ca. 1000 g HN",
    "id": 4655
  },
  {
    "name": "60 - 70 cm HN",
    "id": 4656
  },
  {
    "name": "S (1-10 Monate), Kopfumfang 37-42cm HN",
    "id": 4657
  },
  {
    "name": "M (5-18 Monate), Kopfumfang mehr als 42cm HN",
    "id": 4658
  },
  {
    "name": "Gr. 74/80 (72 cm) HN",
    "id": 4659
  },
  {
    "name": "Gr. 86/92 (84 cm) HN",
    "id": 4660
  },
  {
    "name": "Gr. 62/68 (66 cm) HN",
    "id": 4661
  },
  {
    "name": "Gr. 62/68 (62 cm) HN",
    "id": 4662
  },
  {
    "name": "Gr. 74/80 (74 cm) HN",
    "id": 4663
  },
  {
    "name": "Gr. 86/92 (86 cm) HN",
    "id": 4664
  },
  {
    "name": "Gr.50/56 (50 cm) HN",
    "id": 4665
  },
  {
    "name": "90 x 190 cm HN",
    "id": 4666
  },
  {
    "name": "Durchmesser 39 mm HN",
    "id": 4667
  },
  {
    "name": "Maße 100 x 135 cm HN",
    "id": 4668
  },
  {
    "name": "160 cm HN",
    "id": 4669
  },
  {
    "name": "Gr.1 (90 cm) HN",
    "id": 4670
  },
  {
    "name": "Gr.2 (110 cm) HN",
    "id": 4671
  },
  {
    "name": "Mit Reißverschluss HN",
    "id": 4672
  },
  {
    "name": "20 handgefertigte Kugeln, creme HN",
    "id": 4673
  },
  {
    "name": "20 handgefertigte Kugeln, café HN",
    "id": 4674
  },
  {
    "name": "20 handgefertigte Kugeln, grau-anthrazit HN",
    "id": 4675
  },
  {
    "name": "Maße 80 x 100cm HN",
    "id": 4676
  },
  {
    "name": "135x200cm,1190g (Duo-Ganzjahr), Perkal-Inlett HN",
    "id": 4677
  },
  {
    "name": "135x200cm,1780g (Duo-Winter), Perkal-Inlett HN",
    "id": 4678
  },
  {
    "name": "Maße 17 x 17 x 18,5 cm HN",
    "id": 4679
  },
  {
    "name": "Maße 72 x 35 cm HN",
    "id": 4680
  },
  {
    "name": "155x220cm,1500g (Duo-Ganzj.) Perkal-Inlett HN",
    "id": 4681
  },
  {
    "name": "Länge 50 cm HN",
    "id": 4682
  },
  {
    "name": "Bezug: 100% Baumwolle HN",
    "id": 4683
  },
  {
    "name": "Maße 40 x 40 cm HN",
    "id": 4684
  },
  {
    "name": "Maße 60 x 120 cm HN",
    "id": 4685
  },
  {
    "name": "Maße 70 x 140 cm HN",
    "id": 4686
  },
  {
    "name": "Gr.74/80 HN",
    "id": 4687
  },
  {
    "name": "Gr.86/92 HN",
    "id": 4688
  },
  {
    "name": "20 handgefertigte Kugeln, gelato HN",
    "id": 4689
  },
  {
    "name": "20 handgefertigte Kugeln, provence HN",
    "id": 4690
  },
  {
    "name": "Maße 40 x 85 cm HN",
    "id": 4691
  },
  {
    "name": "Maße 90 x 200 cm HN",
    "id": 4692
  },
  {
    "name": "Maße 80 x 42 cm HN",
    "id": 4693
  },
  {
    "name": "Maße 89 x 50 cm HN",
    "id": 4694
  },
  {
    "name": "Maße ca. 40 x 70 cm HN",
    "id": 4695
  },
  {
    "name": "Maße 80 x 95 cm HN",
    "id": 4696
  },
  {
    "name": "Maße 150 x 200 cm HN",
    "id": 4697
  },
  {
    "name": "Maße 150 x 200cm HN",
    "id": 4698
  },
  {
    "name": "Maße 130 x 170 cm HN",
    "id": 4699
  },
  {
    "name": "Maße 22,5 x 12 cm HN",
    "id": 4700
  },
  {
    "name": "140x200 cm / 160/220 cm HN",
    "id": 4701
  },
  {
    "name": "70 x 70 cm HN",
    "id": 4702
  },
  {
    "name": "Bettbezug 135 x 200 cm, Kissen 80 x 80 cm HN",
    "id": 4703
  },
  {
    "name": "Bettbezug 155 x 220 cm, Kissen 80 x 80 cm HN",
    "id": 4704
  },
  {
    "name": "Maße 50 x 80 x 11cm HN",
    "id": 4705
  },
  {
    "name": "Maße 55 x 90 x 11cm HN",
    "id": 4706
  },
  {
    "name": "Maße 70 x 140 x 15 cm HN",
    "id": 4707
  },
  {
    "name": "Maße 90 x 200 x 25 cm HN",
    "id": 4708
  },
  {
    "name": "Maße 140 x 200 x 25 cm HN",
    "id": 4709
  },
  {
    "name": "Maße 70 x 140 cm, 294 g HN",
    "id": 4710
  },
  {
    "name": "Maße 105 x 55 cm HN",
    "id": 4711
  },
  {
    "name": "Maße 90 x 200, 540 g HN",
    "id": 4712
  },
  {
    "name": "Maße 140 x 200, 840 g HN",
    "id": 4713
  },
  {
    "name": "Maße ca. 13 x 13 x 18 cm, Gewicht ca. 2-3 kg HN",
    "id": 4714
  },
  {
    "name": "Maße 60 x 60 cm HN",
    "id": 4715
  },
  {
    "name": "Maße 12 x 160 cm HN",
    "id": 4716
  },
  {
    "name": "Maße 16 x 200 cm HN",
    "id": 4717
  },
  {
    "name": "Maße 32 x 45 cm und 27 x 35 cm HN",
    "id": 4718
  },
  {
    "name": "Maße 80 x 80 cm HN",
    "id": 4719
  },
  {
    "name": "Gr. 62/68 HN",
    "id": 4720
  },
  {
    "name": "Gr. 74/80 HN",
    "id": 4721
  },
  {
    "name": "Gr. 86/92 HN",
    "id": 4722
  },
  {
    "name": "20 handgefertigte Kugeln, berries HN",
    "id": 4723
  },
  {
    "name": "20 handgefertigte Kugeln, dusty rose HN",
    "id": 4724
  },
  {
    "name": "Länge 225 cm, Durchmesser 50 cm HN",
    "id": 4725
  },
  {
    "name": "Maße ca. 114 x 160 x 1,5 cm HN",
    "id": 4726
  },
  {
    "name": "Maße ca. 100 x 130 x 1,5 cm HN",
    "id": 4727
  },
  {
    "name": "Maße 75 x 75 cm HN",
    "id": 4728
  },
  {
    "name": "Gr.XL (ca.160 x 35 cm) HN",
    "id": 4729
  },
  {
    "name": ";Gr. 62/68 HN",
    "id": 4730
  },
  {
    "name": ";Gr. 74/80 HN",
    "id": 4731
  },
  {
    "name": ";Gr. 86/92 HN",
    "id": 4732
  },
  {
    "name": "Länge ca. 70-80 cm HN",
    "id": 4733
  },
  {
    "name": "Länge ca. 80-90 cm HN",
    "id": 4734
  },
  {
    "name": "Gr. 1 (Länge ca. 60 cm) HN",
    "id": 4735
  },
  {
    "name": "Gr. 2 (Länge ca. 75 cm) HN",
    "id": 4736
  },
  {
    "name": "Länge ca. 160 cm,  Gewicht ca. 1050 g HN",
    "id": 4737
  },
  {
    "name": "Länge ca. 160 cm, Gewicht ca. 1200 g HN",
    "id": 4738
  },
  {
    "name": "Gr.1; HN",
    "id": 4739
  },
  {
    "name": ";Gr.50/56 HN",
    "id": 4740
  },
  {
    "name": ";Gr.62/68 HN",
    "id": 4741
  },
  {
    "name": "Maße 120 x 120 cm HN",
    "id": 4742
  },
  {
    "name": ";ca. 80x80 cm HN",
    "id": 4743
  },
  {
    "name": ";Gr.1 (70cm) HN",
    "id": 4744
  },
  {
    "name": ";Gr.2 (90cm) HN",
    "id": 4745
  },
  {
    "name": ";Gr.3 (110cm) HN",
    "id": 4746
  },
  {
    "name": "Länge ca. 90-100 cm HN",
    "id": 4747
  },
  {
    "name": "Durchmesser innen ca. 3,9 cm HN",
    "id": 4748
  },
  {
    "name": ";Gr. 0-3 Monate HN",
    "id": 4749
  },
  {
    "name": ";Gr. 3-6 Monate HN",
    "id": 4750
  },
  {
    "name": ";Gr. 6-12 Monate HN",
    "id": 4751
  },
  {
    "name": ";Gr. 3-6 Moante HN",
    "id": 4752
  },
  {
    "name": ";Gr. 8-24 Monate HN",
    "id": 4753
  },
  {
    "name": ";Gr. 2-4 Jahre HN",
    "id": 4754
  },
  {
    "name": "Gr. 2-4 Jahre HN",
    "id": 4755
  },
  {
    "name": "Maße 100 x 130 cm HN",
    "id": 4756
  },
  {
    "name": "Durchmesser 114 cm HN",
    "id": 4757
  },
  {
    "name": "Gr. 3-12 Monate HN",
    "id": 4758
  },
  {
    "name": "Gr. 8-24 Monate HN",
    "id": 4759
  },
  {
    "name": "Maße ca. 15 x 15 x 23 cm, Gewicht ca. 4-6 kg HN",
    "id": 4760
  },
  {
    "name": "Maße ca. 16 x 16 x 29 cm, Gewicht ca. 7-10 kg HN",
    "id": 4761
  },
  {
    "name": "Maße 74 x 102 cm HN",
    "id": 4762
  },
  {
    "name": "100 x 135cm, 450g (Sommer), Perkal-Inlett HN",
    "id": 4763
  },
  {
    "name": "100x135cm, 590g (DuoGanzjahr), Perkal-Inlett HN",
    "id": 4764
  },
  {
    "name": "135x200cm, 1190g (DuoGanzjahr), Perkal-Inlett HN",
    "id": 4765
  },
  {
    "name": "Maße 35x40x3 cm, 50g, Perkal-Inlett HN",
    "id": 4766
  },
  {
    "name": "Maße 40x80cm, 500g, Perkal-Inlett HN",
    "id": 4767
  },
  {
    "name": "Maße 80x80cm, 800g, Perkal-Inlett HN",
    "id": 4768
  },
  {
    "name": ";70x140cm, 650g HN",
    "id": 4769
  },
  {
    "name": ";90x200cm, 1190g HN",
    "id": 4770
  },
  {
    "name": ";Gr.0 (ca 57-60 cm), Ganzjahr HN",
    "id": 4771
  },
  {
    "name": ";Gr.1  (ca 75-80 cm), Ganzjahr HN",
    "id": 4772
  },
  {
    "name": ";Gr.2 (ca 95-100 cm), Ganzjahr HN",
    "id": 4773
  },
  {
    "name": ";Gr.1 (ca 75-80 cm), Ganzjahr HN",
    "id": 4774
  },
  {
    "name": "Gr.0 (ca 57-60 cm), Ganzjahr HN",
    "id": 4775
  },
  {
    "name": "Gr.1 (ca 75-80 cm), Ganzjahr HN",
    "id": 4776
  },
  {
    "name": "Gr.2 (ca 95-100 cm), Ganzjahr HN",
    "id": 4777
  },
  {
    "name": "Gr. 1 (95 x 70 cm) HN",
    "id": 4778
  },
  {
    "name": "Maße 40 x 80 cm, 1250g HN",
    "id": 4779
  },
  {
    "name": "Maße 40 x 80 cm, 450 g HN",
    "id": 4780
  },
  {
    "name": "Maße 135 x 200 cm, Gewicht 800 g HN",
    "id": 4781
  },
  {
    "name": "Maße 135 x 200 cm, Gewicht 620 g HN",
    "id": 4782
  },
  {
    "name": "Maße 135 x 200 cm, 2 x 620g (Duo) HN",
    "id": 4783
  },
  {
    "name": "Maße 110 x 145 cm HN",
    "id": 4784
  },
  {
    "name": "Maße 85 x 75 cm HN",
    "id": 4785
  },
  {
    "name": "Größe 8-24 Monate HN",
    "id": 4786
  },
  {
    "name": "Durchmesser ca. 18 cm, Gewicht ca. 3 kg HN",
    "id": 4787
  },
  {
    "name": "Durchmesser ca. 15 cm, Gewicht ca. 3 kg HN",
    "id": 4788
  },
  {
    "name": "Höhe ca. 18 cm, Gewicht ca. 2-3 kg HN",
    "id": 4789
  },
  {
    "name": "Höhe ca. 10  cm HN",
    "id": 4790
  },
  {
    "name": "Höhe ca. 12,5 cm HN",
    "id": 4791
  },
  {
    "name": "Höhe ca. 19 cm HN",
    "id": 4792
  },
  {
    "name": "Maße ca. 77 x 35 cm HN",
    "id": 4793
  },
  {
    "name": "Maße 100 x 135 cm, Gewicht 400 g HN",
    "id": 4794
  },
  {
    "name": "Maße 100 x 135 cm, Gewicht 310 g HN",
    "id": 4795
  },
  {
    "name": "Maße 100 x 135 cm, 2 x 310 g (Duo) HN",
    "id": 4796
  },
  {
    "name": "Maße 90 x 51 x 4 cm HN",
    "id": 4797
  },
  {
    "name": "20 handgefertigte Kugeln, spices HN",
    "id": 4798
  },
  {
    "name": "Maße 40 x 14 cm HN",
    "id": 4799
  },
  {
    "name": "Maße 35 x 23 cm HN",
    "id": 4800
  },
  {
    "name": "Maße 60 x 40 cm HN",
    "id": 4801
  },
  {
    "name": "500 ml HN",
    "id": 4802
  },
  {
    "name": "1000 g HN",
    "id": 4803
  },
  {
    "name": "Gr. 0-3 Monate HN",
    "id": 4804
  },
  {
    "name": "Gr. 3-6 Monate HN",
    "id": 4805
  },
  {
    "name": "Gr. 6-12 Monate HN",
    "id": 4806
  },
  {
    "name": "Gr.3-4 HN",
    "id": 4807
  },
  {
    "name": "Gr.5-6 HN",
    "id": 4808
  },
  {
    "name": "Gr.7-8 HN",
    "id": 4809
  },
  {
    "name": "Inhalt 3 x 7,5 ml HN",
    "id": 4810
  },
  {
    "name": "500 g Dose HN",
    "id": 4811
  }
]